{ 
    "_id" : ObjectId("5f67b77543f4da5b56e8fa8a"), 
    "name" : "First Assignment", 
    "_class" : "com.wiley.grading.assignment.document.Assignment"
}
{ 
    "_id" : ObjectId("5f67b77643f4da5b56e8fa8b"), 
    "name" : "Second Assignment", 
    "_class" : "com.wiley.grading.assignment.document.Assignment"
}
{ 
    "_id" : ObjectId("5f67b77643f4da5b56e8fa8c"), 
    "name" : "Third Assignment", 
    "_class" : "com.wiley.grading.assignment.document.Assignment"
}
